logs/uvm_cpu_demo.vcd
$date
	Sat Sep  6 01:15:59 2025
$end
$version
	ModelSim Version 10.4b
$end
$timescale
	1ps
$end

$scope module tb_uvm_cpu $end

$scope module mon_if $end
$var wire 1 ! clk $end
$var reg 32 " pc [31:0] $end
$var reg 1 # branch_taken $end
$var reg 1 $ stall $end
$var reg 2 % forwardA [1:0] $end
$var reg 2 & forwardB [1:0] $end
$upscope $end

$scope module DUT $end

$scope module EX_MEM $end
$var reg 32 ' alu_y [31:0] $end
$var wire 1 ( clk $end
$var wire 1 ) rst $end
$upscope $end

$scope module FWD $end
$var reg 2 * forwardA [1:0] $end
$var reg 2 + forwardB [1:0] $end
$upscope $end
$upscope $end
$upscope $end
$enddefinitions $end
#0
$dumpvars
b0 "
0#
0$
b0 %
b0 &
b0 *
b0 +
b0 '
0!
1)
0(
$end
#5000
1!
1(
#10000
0!
0(
#15000
1!
1(
#20000
0!
0)
0(
#25000
1!
1(
b100 "
#30000
0!
0(
#35000
1!
1(
b1000 "
#40000
0!
0(
#45000
1!
1(
b101 '
b1100 "
#50000
0!
0(
#55000
1!
1(
b1010 '
b10000 "
b1 *
b10 +
b10 &
b1 %
#60000
0!
0(
#65000
1!
1(
b1111 '
b10100 "
b0 *
b0 +
b10 *
b0 &
b10 %
#70000
0!
0(
#75000
1!
1(
b11000 "
b0 *
b0 %
#80000
0!
0(
#85000
1!
1(
bx '
b11100 "
b10 *
x#
b10 %
#90000
0!
0(
#95000
1!
1(
b0xxxx00 "
b0 *
b1 +
0#
b1 &
b0 %
#100000
0!
0(
#105000
1!
1(
b101 '
bx "
b0 +
b0 &
x#
1#
#110000
0!
0(
#115000
1!
1(
b0 '
0#
#120000
0!
0(
#125000
1!
1(
bx '
#130000
0!
0(
#135000
1!
1(
b0 '
#140000
0!
0(
#145000
1!
1(
bx '
